…
**Comment**: As can be seen from the table above, the mean of the proportion of “Excellent” responses across locations in NY State in 2002 is higher than that of 2006 and 2010, which means the overall health condition was better in 2002 than in 2006 and the condition change positively in 2010. The standard deviation ranking of the proportion of “Excellent” responses across locations in NY State in 2002 &gt; 2006 &gt; 2010, indicating that the variability of proportion of “Excellent” responses in 2002 is the highest, and lowest in 2010.

4.For each year and state, compute the average proportion in each response category (taking the average across locations in a state).

``` r
avg_prop_rep = brfss_tidy %>% 
  group_by(year, state, response) %>% 
  summarize(avg_prop = round(mean(data_value, na.rm = TRUE), digits = 2))
avg_prop_rep
```

    ## # A tibble: 2,215 x 4
    ## # Groups:   year, state [?]
    ##     year state response  avg_prop
    ##    <int> <chr> <fct>        <dbl>
    ##  1  2002 AK    Excellent     27.9
    ##  2  2002 AK    Very good     33.7
    ##  3  2002 AK    Good          23.8
    ##  4  2002 AK    Fair           8.6
    ##  5  2002 AK    Poor           5.9
    ##  6  2002 AL    Excellent     18.5
    ##  7  2002 AL    Very good     30.9
    ##  8  2002 AL    Good          32.7
    ##  9  2002 AL    Fair          12.1
    ## 10  2002 AL    Poor           5.9
    ## # ... with 2,205 more rows
…
